Pack_Size,Reconfigurable,Pack_configuration,Charging_rate,R_plug,R_S,S_p,Losses_charging,Losses_discharging,Losses_total
324000.0,False,96S1P,1C,0.0005,0.00035,7,5760.05976562479,638.7995744928335,6398.859340117624
324000.0,False,96S2P,1C,0.0005,0.00035,7,5760.05976562479,638.7995744928335,6398.859340117624
324000.0,False,96S3P,1C,0.0005,0.00035,7,5760.05976562479,638.7995744928335,6398.859340117624
324000.0,False,96S4P,1C,0.0005,0.00035,7,5760.05976562479,638.7995744928335,6398.859340117624
324000.0,False,96S5P,1C,0.0005,0.00035,7,5760.05976562479,638.7995744928335,6398.859340117624
324000.0,False,96S6P,1C,0.0005,0.00035,7,5760.05976562479,638.7995744928335,6398.859340117624
324000.0,False,96S7P,1C,0.0005,0.00035,7,5760.05976562479,638.7995744928336,6398.859340117624
324000.0,False,96S8P,1C,0.0005,0.00035,7,5760.05976562479,638.7995744928335,6398.859340117624
324000.0,False,96S9P,1C,0.0005,0.00035,7,5760.05976562479,638.7995744928335,6398.859340117624
324000.0,False,96S10P,1C,0.0005,0.00035,7,5760.05976562479,638.7995744928335,6398.859340117624
324000.0,True,96S1P,1C,0.0005,0.00035,7,9778.964062499355,1715.481888333022,11494.445950832378
324000.0,True,96S2P,1C,0.0005,0.00035,7,7152.375097655832,1177.063555950173,8329.438653606005
324000.0,True,96S3P,1C,0.0005,0.00035,7,6361.507378471861,997.9898076692635,7359.497186141124
324000.0,True,96S4P,1C,0.0005,0.00035,7,5981.657373046625,908.1284273949265,6889.785800441552
324000.0,True,96S5P,1C,0.0005,0.00035,7,5760.05976562479,854.4641474347087,6614.523913059499
324000.0,True,96S6P,1C,0.0005,0.00035,7,5612.927973090554,818.3724673398688,6431.300440430423
324000.0,True,96S7P,1C,0.0005,0.00035,7,5509.402574936045,792.7105352376481,6302.113110173694
324000.0,True,96S8P,1C,0.0005,0.00035,7,5432.746215820167,773.4870633666133,6206.23327918678
324000.0,True,96S9P,1C,0.0005,0.00035,7,5373.812446952041,758.6521614768484,6132.464608428889
324000.0,True,96S10P,1C,0.0005,0.00035,7,5325.677832031128,746.5383907165257,6072.216222747654
