Pack_Size,Reconfigurable,Pack_configuration,Charging_rate,R_plug,R_S,S_p,Losses_charging,Losses_discharging,Losses_total
324000.0,False,96S1P,1C,0.0005,0.00035,7,5760.05976562479,5901.331476238163,11661.391241862953
324000.0,False,96S2P,1C,0.0005,0.00035,7,5760.05976562479,5901.331476238163,11661.391241862953
324000.0,False,96S3P,1C,0.0005,0.00035,7,5760.05976562479,5901.331476238163,11661.391241862953
324000.0,False,96S4P,1C,0.0005,0.00035,7,5760.05976562479,5901.331476238163,11661.391241862953
324000.0,False,96S5P,1C,0.0005,0.00035,7,5760.05976562479,5901.331476238163,11661.391241862953
324000.0,False,96S6P,1C,0.0005,0.00035,7,5760.05976562479,5901.331476238163,11661.391241862953
324000.0,False,96S7P,1C,0.0005,0.00035,7,5760.05976562479,5901.331476238163,11661.391241862953
324000.0,False,96S8P,1C,0.0005,0.00035,7,5760.05976562479,5901.331476238163,11661.391241862953
324000.0,False,96S9P,1C,0.0005,0.00035,7,5760.05976562479,5901.331476238163,11661.391241862953
324000.0,False,96S10P,1C,0.0005,0.00035,7,5760.05976562479,5901.331476238163,11661.391241862953
324000.0,True,96S1P,1C,0.0005,0.00035,7,9778.964062499355,15475.914048575178,25254.878111074533
324000.0,True,96S2P,1C,0.0005,0.00035,7,7152.375097655832,10758.414167687619,17910.78926534345
324000.0,True,96S3P,1C,0.0005,0.00035,7,6361.507378471861,9157.661185077226,15519.168563549087
324000.0,True,96S4P,1C,0.0005,0.00035,7,5981.657373046625,8345.81181185447,14327.469184901096
324000.0,True,96S5P,1C,0.0005,0.00035,7,5760.05976562479,7860.2676753973565,13620.327441022146
324000.0,True,96S6P,1C,0.0005,0.00035,7,5612.927973090554,7534.177613822125,13147.10558691268
324000.0,True,96S7P,1C,0.0005,0.00035,7,5509.402574936045,7301.914409602825,12811.31698453887
324000.0,True,96S8P,1C,0.0005,0.00035,7,5432.746215820167,7128.184096668755,12560.930312488923
324000.0,True,96S9P,1C,0.0005,0.00035,7,5373.812446952041,6993.015361786176,12366.827808738217
324000.0,True,96S10P,1C,0.0005,0.00035,7,5325.677832031128,6883.584007618405,12209.261839649533
